(kicad_sch (version 20211123) (generator eeschema)

  (uuid e63e39d7-6ac0-4ffd-8aa3-1841a4541b55)

  (paper "A4")

  (lib_symbols
    (symbol "Connector:Conn_01x04_Female" (pin_names (offset 1.016) hide) (in_bom yes) (on_board yes)
      (property "Reference" "J" (id 0) (at 0 5.08 0)
        (effects (font (size 1.27 1.27)))
      )
      (property "Value" "Conn_01x04_Female" (id 1) (at 0 -7.62 0)
        (effects (font (size 1.27 1.27)))
      )
      (property "Footprint" "" (id 2) (at 0 0 0)
        (effects (font (size 1.27 1.27)) hide)
      )
      (property "Datasheet" "~" (id 3) (at 0 0 0)
        (effects (font (size 1.27 1.27)) hide)
      )
      (property "ki_keywords" "connector" (id 4) (at 0 0 0)
        (effects (font (size 1.27 1.27)) hide)
      )
      (property "ki_description" "Generic connector, single row, 01x04, script generated (kicad-library-utils/schlib/autogen/connector/)" (id 5) (at 0 0 0)
        (effects (font (size 1.27 1.27)) hide)
      )
      (property "ki_fp_filters" "Connector*:*_1x??_*" (id 6) (at 0 0 0)
        (effects (font (size 1.27 1.27)) hide)
      )
      (symbol "Conn_01x04_Female_1_1"
        (arc (start 0 -4.572) (mid -0.508 -5.08) (end 0 -5.588)
          (stroke (width 0.1524) (type default) (color 0 0 0 0))
          (fill (type none))
        )
        (arc (start 0 -2.032) (mid -0.508 -2.54) (end 0 -3.048)
          (stroke (width 0.1524) (type default) (color 0 0 0 0))
          (fill (type none))
        )
        (polyline
          (pts
            (xy -1.27 -5.08)
            (xy -0.508 -5.08)
          )
          (stroke (width 0.1524) (type default) (color 0 0 0 0))
          (fill (type none))
        )
        (polyline
          (pts
            (xy -1.27 -2.54)
            (xy -0.508 -2.54)
          )
          (stroke (width 0.1524) (type default) (color 0 0 0 0))
          (fill (type none))
        )
        (polyline
          (pts
            (xy -1.27 0)
            (xy -0.508 0)
          )
          (stroke (width 0.1524) (type default) (color 0 0 0 0))
          (fill (type none))
        )
        (polyline
          (pts
            (xy -1.27 2.54)
            (xy -0.508 2.54)
          )
          (stroke (width 0.1524) (type default) (color 0 0 0 0))
          (fill (type none))
        )
        (arc (start 0 0.508) (mid -0.508 0) (end 0 -0.508)
          (stroke (width 0.1524) (type default) (color 0 0 0 0))
          (fill (type none))
        )
        (arc (start 0 3.048) (mid -0.508 2.54) (end 0 2.032)
          (stroke (width 0.1524) (type default) (color 0 0 0 0))
          (fill (type none))
        )
        (pin passive line (at -5.08 2.54 0) (length 3.81)
          (name "Pin_1" (effects (font (size 1.27 1.27))))
          (number "1" (effects (font (size 1.27 1.27))))
        )
        (pin passive line (at -5.08 0 0) (length 3.81)
          (name "Pin_2" (effects (font (size 1.27 1.27))))
          (number "2" (effects (font (size 1.27 1.27))))
        )
        (pin passive line (at -5.08 -2.54 0) (length 3.81)
          (name "Pin_3" (effects (font (size 1.27 1.27))))
          (number "3" (effects (font (size 1.27 1.27))))
        )
        (pin passive line (at -5.08 -5.08 0) (length 3.81)
          (name "Pin_4" (effects (font (size 1.27 1.27))))
          (number "4" (effects (font (size 1.27 1.27))))
        )
      )
    )
    (symbol "MCU_Module:Arduino_Nano_Every" (in_bom yes) (on_board yes)
      (property "Reference" "A" (id 0) (at -10.16 23.495 0)
        (effects (font (size 1.27 1.27)) (justify left bottom))
      )
      (property "Value" "Arduino_Nano_Every" (id 1) (at 5.08 -24.13 0)
        (effects (font (size 1.27 1.27)) (justify left top))
      )
      (property "Footprint" "Module:Arduino_Nano" (id 2) (at 0 0 0)
        (effects (font (size 1.27 1.27) italic) hide)
      )
      (property "Datasheet" "https://content.arduino.cc/assets/NANOEveryV3.0_sch.pdf" (id 3) (at 0 0 0)
        (effects (font (size 1.27 1.27)) hide)
      )
      (property "ki_keywords" "Arduino nano microcontroller module USB UPDI AATMega4809 AVR" (id 4) (at 0 0 0)
        (effects (font (size 1.27 1.27)) hide)
      )
      (property "ki_description" "Arduino Nano Every" (id 5) (at 0 0 0)
        (effects (font (size 1.27 1.27)) hide)
      )
      (property "ki_fp_filters" "Arduino*Nano*" (id 6) (at 0 0 0)
        (effects (font (size 1.27 1.27)) hide)
      )
      (symbol "Arduino_Nano_Every_0_1"
        (rectangle (start -10.16 22.86) (end 10.16 -22.86)
          (stroke (width 0.254) (type default) (color 0 0 0 0))
          (fill (type background))
        )
      )
      (symbol "Arduino_Nano_Every_1_1"
        (pin bidirectional line (at -12.7 20.32 0) (length 2.54)
          (name "TX1" (effects (font (size 1.27 1.27))))
          (number "1" (effects (font (size 1.27 1.27))))
        )
        (pin bidirectional line (at -12.7 0 0) (length 2.54)
          (name "D7" (effects (font (size 1.27 1.27))))
          (number "10" (effects (font (size 1.27 1.27))))
        )
        (pin bidirectional line (at -12.7 -2.54 0) (length 2.54)
          (name "D8" (effects (font (size 1.27 1.27))))
          (number "11" (effects (font (size 1.27 1.27))))
        )
        (pin bidirectional line (at -12.7 -5.08 0) (length 2.54)
          (name "D9" (effects (font (size 1.27 1.27))))
          (number "12" (effects (font (size 1.27 1.27))))
        )
        (pin bidirectional line (at -12.7 -7.62 0) (length 2.54)
          (name "D10" (effects (font (size 1.27 1.27))))
          (number "13" (effects (font (size 1.27 1.27))))
        )
        (pin bidirectional line (at -12.7 -12.7 0) (length 2.54)
          (name "MOSI" (effects (font (size 1.27 1.27))))
          (number "14" (effects (font (size 1.27 1.27))))
        )
        (pin bidirectional line (at -12.7 -15.24 0) (length 2.54)
          (name "MISO" (effects (font (size 1.27 1.27))))
          (number "15" (effects (font (size 1.27 1.27))))
        )
        (pin bidirectional line (at -12.7 -17.78 0) (length 2.54)
          (name "SCK" (effects (font (size 1.27 1.27))))
          (number "16" (effects (font (size 1.27 1.27))))
        )
        (pin power_out line (at 2.54 25.4 270) (length 2.54)
          (name "3V3" (effects (font (size 1.27 1.27))))
          (number "17" (effects (font (size 1.27 1.27))))
        )
        (pin input line (at 12.7 5.08 180) (length 2.54)
          (name "AREF" (effects (font (size 1.27 1.27))))
          (number "18" (effects (font (size 1.27 1.27))))
        )
        (pin bidirectional line (at 12.7 0 180) (length 2.54)
          (name "A0" (effects (font (size 1.27 1.27))))
          (number "19" (effects (font (size 1.27 1.27))))
        )
        (pin bidirectional line (at -12.7 17.78 0) (length 2.54)
          (name "RX1" (effects (font (size 1.27 1.27))))
          (number "2" (effects (font (size 1.27 1.27))))
        )
        (pin bidirectional line (at 12.7 -2.54 180) (length 2.54)
          (name "A1" (effects (font (size 1.27 1.27))))
          (number "20" (effects (font (size 1.27 1.27))))
        )
        (pin bidirectional line (at 12.7 -5.08 180) (length 2.54)
          (name "A2" (effects (font (size 1.27 1.27))))
          (number "21" (effects (font (size 1.27 1.27))))
        )
        (pin bidirectional line (at 12.7 -7.62 180) (length 2.54)
          (name "A3" (effects (font (size 1.27 1.27))))
          (number "22" (effects (font (size 1.27 1.27))))
        )
        (pin bidirectional line (at 12.7 -10.16 180) (length 2.54)
          (name "SDA/A4" (effects (font (size 1.27 1.27))))
          (number "23" (effects (font (size 1.27 1.27))))
        )
        (pin bidirectional line (at 12.7 -12.7 180) (length 2.54)
          (name "SCL/A5" (effects (font (size 1.27 1.27))))
          (number "24" (effects (font (size 1.27 1.27))))
        )
        (pin bidirectional line (at 12.7 -15.24 180) (length 2.54)
          (name "A6" (effects (font (size 1.27 1.27))))
          (number "25" (effects (font (size 1.27 1.27))))
        )
        (pin bidirectional line (at 12.7 -17.78 180) (length 2.54)
          (name "A7" (effects (font (size 1.27 1.27))))
          (number "26" (effects (font (size 1.27 1.27))))
        )
        (pin power_out line (at 5.08 25.4 270) (length 2.54)
          (name "+5V" (effects (font (size 1.27 1.27))))
          (number "27" (effects (font (size 1.27 1.27))))
        )
        (pin input line (at 12.7 12.7 180) (length 2.54)
          (name "~{RESET}" (effects (font (size 1.27 1.27))))
          (number "28" (effects (font (size 1.27 1.27))))
        )
        (pin passive line (at 0 -25.4 90) (length 2.54) hide
          (name "GND" (effects (font (size 1.27 1.27))))
          (number "29" (effects (font (size 1.27 1.27))))
        )
        (pin input line (at 12.7 15.24 180) (length 2.54)
          (name "~{RESET}" (effects (font (size 1.27 1.27))))
          (number "3" (effects (font (size 1.27 1.27))))
        )
        (pin power_in line (at -2.54 25.4 270) (length 2.54)
          (name "VIN" (effects (font (size 1.27 1.27))))
          (number "30" (effects (font (size 1.27 1.27))))
        )
        (pin power_in line (at 0 -25.4 90) (length 2.54)
          (name "GND" (effects (font (size 1.27 1.27))))
          (number "4" (effects (font (size 1.27 1.27))))
        )
        (pin bidirectional line (at -12.7 12.7 0) (length 2.54)
          (name "D2" (effects (font (size 1.27 1.27))))
          (number "5" (effects (font (size 1.27 1.27))))
        )
        (pin bidirectional line (at -12.7 10.16 0) (length 2.54)
          (name "D3" (effects (font (size 1.27 1.27))))
          (number "6" (effects (font (size 1.27 1.27))))
        )
        (pin bidirectional line (at -12.7 7.62 0) (length 2.54)
          (name "D4" (effects (font (size 1.27 1.27))))
          (number "7" (effects (font (size 1.27 1.27))))
        )
        (pin bidirectional line (at -12.7 5.08 0) (length 2.54)
          (name "D5" (effects (font (size 1.27 1.27))))
          (number "8" (effects (font (size 1.27 1.27))))
        )
        (pin bidirectional line (at -12.7 2.54 0) (length 2.54)
          (name "D6" (effects (font (size 1.27 1.27))))
          (number "9" (effects (font (size 1.27 1.27))))
        )
      )
    )
    (symbol "Motor:Motor_DC" (pin_numbers hide) (pin_names (offset 0) hide) (in_bom yes) (on_board yes)
      (property "Reference" "M" (id 0) (at 2.54 2.54 0)
        (effects (font (size 1.27 1.27)) (justify left))
      )
      (property "Value" "Motor_DC" (id 1) (at 2.54 -5.08 0)
        (effects (font (size 1.27 1.27)) (justify left top))
      )
      (property "Footprint" "" (id 2) (at 0 -2.286 0)
        (effects (font (size 1.27 1.27)) hide)
      )
      (property "Datasheet" "~" (id 3) (at 0 -2.286 0)
        (effects (font (size 1.27 1.27)) hide)
      )
      (property "ki_keywords" "DC Motor" (id 4) (at 0 0 0)
        (effects (font (size 1.27 1.27)) hide)
      )
      (property "ki_description" "DC Motor" (id 5) (at 0 0 0)
        (effects (font (size 1.27 1.27)) hide)
      )
      (property "ki_fp_filters" "PinHeader*P2.54mm* TerminalBlock*" (id 6) (at 0 0 0)
        (effects (font (size 1.27 1.27)) hide)
      )
      (symbol "Motor_DC_0_0"
        (polyline
          (pts
            (xy -1.27 -3.302)
            (xy -1.27 0.508)
            (xy 0 -2.032)
            (xy 1.27 0.508)
            (xy 1.27 -3.302)
          )
          (stroke (width 0) (type default) (color 0 0 0 0))
          (fill (type none))
        )
      )
      (symbol "Motor_DC_0_1"
        (circle (center 0 -1.524) (radius 3.2512)
          (stroke (width 0.254) (type default) (color 0 0 0 0))
          (fill (type none))
        )
        (polyline
          (pts
            (xy 0 -7.62)
            (xy 0 -7.112)
          )
          (stroke (width 0) (type default) (color 0 0 0 0))
          (fill (type none))
        )
        (polyline
          (pts
            (xy 0 -4.7752)
            (xy 0 -5.1816)
          )
          (stroke (width 0) (type default) (color 0 0 0 0))
          (fill (type none))
        )
        (polyline
          (pts
            (xy 0 1.7272)
            (xy 0 2.0828)
          )
          (stroke (width 0) (type default) (color 0 0 0 0))
          (fill (type none))
        )
        (polyline
          (pts
            (xy 0 2.032)
            (xy 0 2.54)
          )
          (stroke (width 0) (type default) (color 0 0 0 0))
          (fill (type none))
        )
      )
      (symbol "Motor_DC_1_1"
        (pin passive line (at 0 5.08 270) (length 2.54)
          (name "+" (effects (font (size 1.27 1.27))))
          (number "1" (effects (font (size 1.27 1.27))))
        )
        (pin passive line (at 0 -7.62 90) (length 2.54)
          (name "-" (effects (font (size 1.27 1.27))))
          (number "2" (effects (font (size 1.27 1.27))))
        )
      )
    )
    (symbol "power:+5V" (power) (pin_names (offset 0)) (in_bom yes) (on_board yes)
      (property "Reference" "#PWR" (id 0) (at 0 -3.81 0)
        (effects (font (size 1.27 1.27)) hide)
      )
      (property "Value" "+5V" (id 1) (at 0 3.556 0)
        (effects (font (size 1.27 1.27)))
      )
      (property "Footprint" "" (id 2) (at 0 0 0)
        (effects (font (size 1.27 1.27)) hide)
      )
      (property "Datasheet" "" (id 3) (at 0 0 0)
        (effects (font (size 1.27 1.27)) hide)
      )
      (property "ki_keywords" "power-flag" (id 4) (at 0 0 0)
        (effects (font (size 1.27 1.27)) hide)
      )
      (property "ki_description" "Power symbol creates a global label with name \"+5V\"" (id 5) (at 0 0 0)
        (effects (font (size 1.27 1.27)) hide)
      )
      (symbol "+5V_0_1"
        (polyline
          (pts
            (xy -0.762 1.27)
            (xy 0 2.54)
          )
          (stroke (width 0) (type default) (color 0 0 0 0))
          (fill (type none))
        )
        (polyline
          (pts
            (xy 0 0)
            (xy 0 2.54)
          )
          (stroke (width 0) (type default) (color 0 0 0 0))
          (fill (type none))
        )
        (polyline
          (pts
            (xy 0 2.54)
            (xy 0.762 1.27)
          )
          (stroke (width 0) (type default) (color 0 0 0 0))
          (fill (type none))
        )
      )
      (symbol "+5V_1_1"
        (pin power_in line (at 0 0 90) (length 0) hide
          (name "+5V" (effects (font (size 1.27 1.27))))
          (number "1" (effects (font (size 1.27 1.27))))
        )
      )
    )
    (symbol "power:GND" (power) (pin_names (offset 0)) (in_bom yes) (on_board yes)
      (property "Reference" "#PWR" (id 0) (at 0 -6.35 0)
        (effects (font (size 1.27 1.27)) hide)
      )
      (property "Value" "GND" (id 1) (at 0 -3.81 0)
        (effects (font (size 1.27 1.27)))
      )
      (property "Footprint" "" (id 2) (at 0 0 0)
        (effects (font (size 1.27 1.27)) hide)
      )
      (property "Datasheet" "" (id 3) (at 0 0 0)
        (effects (font (size 1.27 1.27)) hide)
      )
      (property "ki_keywords" "power-flag" (id 4) (at 0 0 0)
        (effects (font (size 1.27 1.27)) hide)
      )
      (property "ki_description" "Power symbol creates a global label with name \"GND\" , ground" (id 5) (at 0 0 0)
        (effects (font (size 1.27 1.27)) hide)
      )
      (symbol "GND_0_1"
        (polyline
          (pts
            (xy 0 0)
            (xy 0 -1.27)
            (xy 1.27 -1.27)
            (xy 0 -2.54)
            (xy -1.27 -1.27)
            (xy 0 -1.27)
          )
          (stroke (width 0) (type default) (color 0 0 0 0))
          (fill (type none))
        )
      )
      (symbol "GND_1_1"
        (pin power_in line (at 0 0 270) (length 0) hide
          (name "GND" (effects (font (size 1.27 1.27))))
          (number "1" (effects (font (size 1.27 1.27))))
        )
      )
    )
  )

  (junction (at 85.09 36.83) (diameter 0) (color 0 0 0 0)
    (uuid 4084bdd5-8440-438a-b513-668fde65ffb8)
  )
  (junction (at 59.69 92.71) (diameter 0) (color 0 0 0 0)
    (uuid d42d0d83-e4ea-4a22-a3fa-732965b62aca)
  )

  (wire (pts (xy 123.19 55.88) (xy 123.19 83.82))
    (stroke (width 0) (type default) (color 0 0 0 0))
    (uuid 01f3881d-924f-42bd-81c9-ddad3f93322b)
  )
  (wire (pts (xy 93.98 49.53) (xy 86.36 49.53))
    (stroke (width 0) (type default) (color 0 0 0 0))
    (uuid 0203b347-ab7d-48b6-aa10-1037bd1f073d)
  )
  (wire (pts (xy 125.73 60.96) (xy 125.73 92.71))
    (stroke (width 0) (type default) (color 0 0 0 0))
    (uuid 020a3d1e-db4d-42fd-810b-d15d50bd5518)
  )
  (wire (pts (xy 125.73 36.83) (xy 125.73 53.34))
    (stroke (width 0) (type default) (color 0 0 0 0))
    (uuid 23945a50-1e0d-4043-861c-2749dedd45c3)
  )
  (wire (pts (xy 125.73 36.83) (xy 85.09 36.83))
    (stroke (width 0) (type default) (color 0 0 0 0))
    (uuid 313b3946-aa51-4b9b-bec3-af90c22fcd93)
  )
  (polyline (pts (xy 88.9 66.04) (xy 118.11 66.04))
    (stroke (width 0) (type default) (color 0 0 0 0))
    (uuid 33d39377-7759-48a1-86bb-25356030dd5e)
  )

  (wire (pts (xy 77.47 81.28) (xy 77.47 57.15))
    (stroke (width 0) (type default) (color 0 0 0 0))
    (uuid 3549eb1d-9541-4b59-9296-dee2787d9ffc)
  )
  (wire (pts (xy 110.49 58.42) (xy 120.65 58.42))
    (stroke (width 0) (type default) (color 0 0 0 0))
    (uuid 3683625c-c8e5-4aab-837b-c93d2d5f392a)
  )
  (wire (pts (xy 110.49 55.88) (xy 123.19 55.88))
    (stroke (width 0) (type default) (color 0 0 0 0))
    (uuid 46df7c72-caee-4e0b-9ce5-abf723047be2)
  )
  (wire (pts (xy 59.69 92.71) (xy 125.73 92.71))
    (stroke (width 0) (type default) (color 0 0 0 0))
    (uuid 48454277-eff3-4bc9-bd6d-ddbcf8cfda55)
  )
  (wire (pts (xy 77.47 57.15) (xy 72.39 57.15))
    (stroke (width 0) (type default) (color 0 0 0 0))
    (uuid 4a86365d-cc20-459a-b99b-f15fda69a5b6)
  )
  (wire (pts (xy 54.61 36.83) (xy 85.09 36.83))
    (stroke (width 0) (type default) (color 0 0 0 0))
    (uuid 4fdd6108-e419-4965-8dec-b81d96b10a80)
  )
  (wire (pts (xy 59.69 92.71) (xy 59.69 90.17))
    (stroke (width 0) (type default) (color 0 0 0 0))
    (uuid 5152543f-ef31-4114-ab8b-46b2583b0c7a)
  )
  (wire (pts (xy 54.61 36.83) (xy 54.61 39.37))
    (stroke (width 0) (type default) (color 0 0 0 0))
    (uuid 57e55951-d359-44cd-9daa-cfc95add76ba)
  )
  (wire (pts (xy 120.65 58.42) (xy 120.65 81.28))
    (stroke (width 0) (type default) (color 0 0 0 0))
    (uuid 62ca94fe-fc11-4355-bcb4-71f5acb59055)
  )
  (wire (pts (xy 120.65 81.28) (xy 77.47 81.28))
    (stroke (width 0) (type default) (color 0 0 0 0))
    (uuid 76297487-2411-4d70-b3ec-1f4c14c195f0)
  )
  (polyline (pts (xy 88.9 44.45) (xy 88.9 66.04))
    (stroke (width 0) (type default) (color 0 0 0 0))
    (uuid 8e7159e3-879a-4eb5-8521-3e500ed43c1b)
  )

  (wire (pts (xy 86.36 62.23) (xy 93.98 62.23))
    (stroke (width 0) (type default) (color 0 0 0 0))
    (uuid 965cb826-e8ad-4954-a1b5-18e2779be769)
  )
  (wire (pts (xy 123.19 83.82) (xy 74.93 83.82))
    (stroke (width 0) (type default) (color 0 0 0 0))
    (uuid 966d226d-fe00-4736-96dc-f3ddffc99bb3)
  )
  (wire (pts (xy 74.93 83.82) (xy 74.93 59.69))
    (stroke (width 0) (type default) (color 0 0 0 0))
    (uuid 9aa53467-08d7-4642-8ce5-36d96c414f23)
  )
  (wire (pts (xy 110.49 53.34) (xy 125.73 53.34))
    (stroke (width 0) (type default) (color 0 0 0 0))
    (uuid a25c4e03-229a-4adf-a056-4ed0920d0520)
  )
  (wire (pts (xy 74.93 59.69) (xy 72.39 59.69))
    (stroke (width 0) (type default) (color 0 0 0 0))
    (uuid b2ecd4ca-652c-41ba-a74f-3080f139dac8)
  )
  (wire (pts (xy 59.69 93.98) (xy 59.69 92.71))
    (stroke (width 0) (type default) (color 0 0 0 0))
    (uuid b8565440-e06d-4d80-a82d-6dee5864731b)
  )
  (wire (pts (xy 85.09 36.83) (xy 85.09 35.56))
    (stroke (width 0) (type default) (color 0 0 0 0))
    (uuid be3b347e-2d3e-4038-ba7b-9915c721fe05)
  )
  (polyline (pts (xy 88.9 44.45) (xy 118.11 44.45))
    (stroke (width 0) (type default) (color 0 0 0 0))
    (uuid cd28c320-d7c4-495f-962e-23dadf6ebdd5)
  )

  (wire (pts (xy 110.49 60.96) (xy 125.73 60.96))
    (stroke (width 0) (type default) (color 0 0 0 0))
    (uuid d5c9224b-d5c0-4102-910d-5d83fe36a344)
  )
  (polyline (pts (xy 118.11 66.04) (xy 118.11 44.45))
    (stroke (width 0) (type default) (color 0 0 0 0))
    (uuid ff3ac520-ed27-4d62-98d3-c5c6841c7aaa)
  )

  (label "5V" (at 113.03 53.34 0)
    (effects (font (size 1.27 1.27)) (justify left bottom))
    (uuid 3c176838-4de3-4cb1-82c4-6b86c8891787)
  )
  (label "GND" (at 113.03 60.96 0)
    (effects (font (size 1.27 1.27)) (justify left bottom))
    (uuid 48fcee6a-3086-47df-ae92-122188e9d5cc)
  )
  (label "CHA" (at 113.03 58.42 0)
    (effects (font (size 1.27 1.27)) (justify left bottom))
    (uuid 5e0c42e5-9889-4433-bc8d-6951c76cdd4f)
  )
  (label "CHB" (at 113.03 55.88 0)
    (effects (font (size 1.27 1.27)) (justify left bottom))
    (uuid 6d15ea06-648a-43f3-baeb-643493e615b8)
  )

  (symbol (lib_id "Connector:Conn_01x04_Female") (at 105.41 55.88 0) (mirror y) (unit 1)
    (in_bom yes) (on_board yes)
    (uuid 0ead65db-c5e4-47dc-8f55-d1cf580bbd10)
    (property "Reference" "J?" (id 0) (at 106.045 48.26 0)
      (effects (font (size 1.27 1.27)) hide)
    )
    (property "Value" "encoder" (id 1) (at 106.68 50.8 0))
    (property "Footprint" "" (id 2) (at 105.41 55.88 0)
      (effects (font (size 1.27 1.27)) hide)
    )
    (property "Datasheet" "~" (id 3) (at 105.41 55.88 0)
      (effects (font (size 1.27 1.27)) hide)
    )
    (pin "1" (uuid a176ed5d-6161-4382-95c5-a75c9948a43a))
    (pin "2" (uuid 03e87878-2fcb-4a04-9d5a-37f56a198fdc))
    (pin "3" (uuid 9b768969-8e55-4335-bc66-7abc9bdb3798))
    (pin "4" (uuid 96277cc9-3fca-4792-baa4-4d52d1f1996a))
  )

  (symbol (lib_id "MCU_Module:Arduino_Nano_Every") (at 59.69 64.77 0) (mirror y) (unit 1)
    (in_bom yes) (on_board yes)
    (uuid 83226cf4-4bcb-4755-8744-16fd92f3a724)
    (property "Reference" "A1" (id 0) (at 66.04 40.64 0)
      (effects (font (size 1.27 1.27)) (justify right))
    )
    (property "Value" "Arduino_Nano_Every" (id 1) (at 60.96 88.9 0)
      (effects (font (size 1.27 1.27)) (justify right))
    )
    (property "Footprint" "Module:Arduino_Nano" (id 2) (at 59.69 64.77 0)
      (effects (font (size 1.27 1.27) italic) hide)
    )
    (property "Datasheet" "https://content.arduino.cc/assets/NANOEveryV3.0_sch.pdf" (id 3) (at 59.69 64.77 0)
      (effects (font (size 1.27 1.27)) hide)
    )
    (pin "1" (uuid 86856bef-d161-4600-b8d6-44f81ad42b7c))
    (pin "10" (uuid d0f11060-bc65-49c7-b1f8-1ffca12c5c16))
    (pin "11" (uuid 1002411f-a485-468c-981b-cec2ce41d8bd))
    (pin "12" (uuid 1a0c5194-0d7e-4fcc-a11d-049fac80c4dc))
    (pin "13" (uuid 415d6a7d-98b2-4d17-b46f-6f38749a3ba2))
    (pin "14" (uuid 4dfbe524-132d-43d4-8ae0-9aa2f72df70b))
    (pin "15" (uuid 6b1d6bcd-1928-474b-8dbd-6dab746597ca))
    (pin "16" (uuid b9f8ba78-9b7b-4a7c-8351-c9f145a140ab))
    (pin "17" (uuid 494a6b97-f33e-4834-b724-0c3a3ff54317))
    (pin "18" (uuid 506110af-ac51-4501-bfa6-1552a848d599))
    (pin "19" (uuid 3520b9bf-2dfc-4868-a650-86ff98682e83))
    (pin "2" (uuid ab3e0d45-ad5b-42a1-ab02-8fee32ad804e))
    (pin "20" (uuid 1c6c46b2-dd9e-430f-85e9-621815ceca94))
    (pin "21" (uuid 9c7af13e-949e-4a55-a6b7-45ef51b4f106))
    (pin "22" (uuid 6e23d37a-3804-4cb0-9f56-ede150eedda5))
    (pin "23" (uuid 730780c7-40bd-484b-b640-ae047209b478))
    (pin "24" (uuid 5ea450c5-c799-4c49-a77b-90af3b812ea4))
    (pin "25" (uuid a56d1fde-b4ad-42de-a848-9c94bc0cbe09))
    (pin "26" (uuid 226748a0-9c54-4438-a724-741c7846a7bf))
    (pin "27" (uuid 28aab436-a04a-4f1d-a887-4f09513fdc8a))
    (pin "28" (uuid 45b2cd71-50dd-4f61-80ce-9a5382fe6dd4))
    (pin "29" (uuid 481d8c49-260f-40f8-9d7a-177fecb9140f))
    (pin "3" (uuid 443b842e-cdd6-495f-a7fb-0cef04c17274))
    (pin "30" (uuid 7ab8aff0-29e4-4be7-af1f-6a97b7752e20))
    (pin "4" (uuid 52fe3400-bf18-4fe5-aa6e-2be779b65697))
    (pin "5" (uuid 7112d2ae-7915-4f1a-aae6-e71244f669d8))
    (pin "6" (uuid 510813ff-4301-4d7b-b640-805049ac6194))
    (pin "7" (uuid 190829cf-8172-400f-bba0-21761cc942eb))
    (pin "8" (uuid 3fe74e96-d630-4db9-83b3-437a4cba15b4))
    (pin "9" (uuid ef996d8d-e885-4c54-b48b-e12cd0bd7e8e))
  )

  (symbol (lib_id "Motor:Motor_DC") (at 93.98 54.61 0) (unit 1)
    (in_bom yes) (on_board yes)
    (uuid 88071c39-7478-4d42-a0c9-ea227d61f16f)
    (property "Reference" "M1" (id 0) (at 96.52 52.07 0)
      (effects (font (size 1.27 1.27)) (justify left))
    )
    (property "Value" "Motor_DC" (id 1) (at 92.71 64.77 0)
      (effects (font (size 1.27 1.27)) (justify left))
    )
    (property "Footprint" "" (id 2) (at 93.98 56.896 0)
      (effects (font (size 1.27 1.27)) hide)
    )
    (property "Datasheet" "~" (id 3) (at 93.98 56.896 0)
      (effects (font (size 1.27 1.27)) hide)
    )
    (pin "1" (uuid dca493a0-6eda-488f-a002-b8342b37cfb9))
    (pin "2" (uuid 2c6fedfa-d124-4a32-aaf9-1170178a9e41))
  )

  (symbol (lib_id "power:+5V") (at 85.09 35.56 0) (unit 1)
    (in_bom yes) (on_board yes) (fields_autoplaced)
    (uuid b2ad8ad8-50ce-4b5b-be5d-ded2608fde95)
    (property "Reference" "#PWR?" (id 0) (at 85.09 39.37 0)
      (effects (font (size 1.27 1.27)) hide)
    )
    (property "Value" "+5V" (id 1) (at 85.09 30.48 0))
    (property "Footprint" "" (id 2) (at 85.09 35.56 0)
      (effects (font (size 1.27 1.27)) hide)
    )
    (property "Datasheet" "" (id 3) (at 85.09 35.56 0)
      (effects (font (size 1.27 1.27)) hide)
    )
    (pin "1" (uuid e4388743-4bc8-4f5f-9609-492a4245e9a2))
  )

  (symbol (lib_id "power:GND") (at 59.69 93.98 0) (unit 1)
    (in_bom yes) (on_board yes) (fields_autoplaced)
    (uuid e8055a1b-b857-489c-a9c9-cfccd187e14d)
    (property "Reference" "#PWR02" (id 0) (at 59.69 100.33 0)
      (effects (font (size 1.27 1.27)) hide)
    )
    (property "Value" "GND" (id 1) (at 59.69 98.5425 0))
    (property "Footprint" "" (id 2) (at 59.69 93.98 0)
      (effects (font (size 1.27 1.27)) hide)
    )
    (property "Datasheet" "" (id 3) (at 59.69 93.98 0)
      (effects (font (size 1.27 1.27)) hide)
    )
    (pin "1" (uuid a4659fb3-8982-4912-b550-39f1f35ec229))
  )

  (sheet_instances
    (path "/" (page "1"))
  )

  (symbol_instances
    (path "/e8055a1b-b857-489c-a9c9-cfccd187e14d"
      (reference "#PWR02") (unit 1) (value "GND") (footprint "")
    )
    (path "/b2ad8ad8-50ce-4b5b-be5d-ded2608fde95"
      (reference "#PWR?") (unit 1) (value "+5V") (footprint "")
    )
    (path "/83226cf4-4bcb-4755-8744-16fd92f3a724"
      (reference "A1") (unit 1) (value "Arduino_Nano_Every") (footprint "Module:Arduino_Nano")
    )
    (path "/0ead65db-c5e4-47dc-8f55-d1cf580bbd10"
      (reference "J?") (unit 1) (value "encoder") (footprint "")
    )
    (path "/88071c39-7478-4d42-a0c9-ea227d61f16f"
      (reference "M1") (unit 1) (value "Motor_DC") (footprint "")
    )
  )
)
